{
    "ko": {
        "translation": {
            "RegionMap_Table!1~Description": "\uc6d4\ub4dc \uc9c0\ub3c4",
            "RegionMap_Table!2~Description": "\uc5b4\uc885 \uc9c0\ub3c4",
            "RegionMap_Table!3~Description": "\ubb3c \uc9c0\ub3c4",
            "RegionMap_Table!4~Description": "\uacf5\uc131 \uc9c0\ub3c4"
        }
    },
    "ru": {
        "translation": {
            "RegionMap_Table!1~Description": "\u041a\u0430\u0440\u0442\u0430 \u043c\u0438\u0440\u0430",
            "RegionMap_Table!2~Description": "\u041a\u0430\u0440\u0442\u0430 \u0436\u0438\u0432\u043d\u043e\u0441\u0442\u0438",
            "RegionMap_Table!3~Description": "\u041a\u0430\u0440\u0442\u0430 \u0432\u043e\u0434\u043e\u0435\u043c\u043e\u0432",
            "RegionMap_Table!4~Description": "\u041a\u0430\u0440\u0442\u0430 \u043e\u0441\u0430\u0434"
        }
    }
}